<?xml version="1.0" encoding="UTF-8"?>
<svg width="140px" height="140px" viewBox="0 0 140 140" version="1.1" xmlns="http://www.w3.org/2000/svg" xmlns:xlink="http://www.w3.org/1999/xlink">
    <!-- Generator: Sketch 52.6 (67491) - http://www.bohemiancoding.com/sketch -->
    <title>Icons</title>
    <desc>Created with Sketch.</desc>
    <g id="Website" stroke="none" stroke-width="1" fill="none" fill-rule="evenodd">
        <g id="Icons" transform="translate(-627.000000, -887.000000)" fill="#4A4A4A" fill-rule="nonzero">
            <g id="AQI" transform="translate(627.000000, 887.000000)">
                <path d="M30.0703,88.666 C32.5117,80.1211 38.3711,74.8965 46.4277,73.2852 C49.7969,62.8848 58.5371,57.709 68.6445,57.709 C69.7676,57.709 70.793,57.8066 71.8184,57.9531 C75.7734,52.1426 81.877,49.2617 89.6406,49.3594 C88.0781,45.1602 83.4395,41.5469 76.1152,41.5469 C73.9668,41.5469 72.209,41.9375 70.3535,42.5234 C66.3496,36.7129 60.002,33.0996 52.7754,33.0996 C41.5449,33.0996 32.2188,42.0352 31.6328,53.168 C23.0391,54.9258 16.74023,62.2988 16.74023,71.2344 C16.74023,79.2422 21.623,86.127 30.0703,88.666 Z M51.6523,112.29883 L108.146,112.29883 C119.572,112.29883 127.238,104.19336 127.238,93.9883 C127.238,85.0527 120.891,77.6309 112.346,75.9219 C111.76,64.8379 102.6289,55.8047 91.3496,55.8047 C83.9766,55.8047 77.5312,59.5156 73.625,65.2285 C71.7207,64.5938 69.9141,64.3008 67.9121,64.3008 C59.123,64.3008 51.9941,70.6484 50.7246,79.1445 C41.6426,79.4863 34.4648,86.8105 34.4648,95.7461 C34.4648,104.97461 41.3496,112.29883 51.6523,112.29883 Z" id="Shape"></path>
            </g>
        </g>
    </g>
</svg>